Working with categorical data in R using Tidyverse
…
Now we can find the number of levels in each column with the following code

number_of_levels <- responses_as_factors %>%
    summarise_all(nlevels) %>%
    gather(variable, num_levels) # just to format the data from wide to long
number_of_levels
## # A tibble: 47 x 2
##    variable                                num_levels
##    <chr>                                        <int>
##  1 LearningPlatformUsefulnessArxiv                  3
##  2 LearningPlatformUsefulnessBlogs                  3
##  3 LearningPlatformUsefulnessCollege                3
##  4 LearningPlatformUsefulnessCompany                3
##  5 LearningPlatformUsefulnessConferences            3
##  6 LearningPlatformUsefulnessFriends                3
##  7 LearningPlatformUsefulnessKaggle                 3
##  8 LearningPlatformUsefulnessNewsletters            3
##  9 LearningPlatformUsefulnessCommunities            3
## 10 LearningPlatformUsefulnessDocumentation          3
## # … with 37 more rows
…
